Transcription to Prediction
…
Among which 571 patients have both RNASeq data and either survived for at least one year after diagnosis (n = 311) or have died (n = 260). We propose a methodology to predict the one-year survival of AML patients using a support vector machine (SVM) model based on transcriptomic (RNASeq) data of these patients.

Mention that we have more then 50k gene features in this data set.

Methodology

Data Preprocessing and Normalization

The raw read count data was normalized into z-scores across the features.

The data was then split into training and testing sets with a 80/20 ratio.

RNAseq data was then joined with the clinical data to form the final dataset.

# A tibble: 571 × 51,017
   survived ENSG00000000003 ENSG00000000005 ENSG00000000419 ENSG00000000457
   <lgl>              <dbl>           <dbl>           <dbl>           <dbl>
 1 TRUE              -0.434          -0.123         -0.526          -0.330 
 2 TRUE              -0.322          -0.123         -1.10            0.900 
 3 TRUE              -0.479          -0.123          0.0255         -0.737 
 4 TRUE              -0.299          -0.123         -0.452          -0.336 
 5 TRUE               0.240          -0.123         -0.992           0.696 
 6 FALSE             -0.434          -0.123         -1.25           -1.22  
 7 TRUE               0.689          -0.123         -0.757          -0.586 
 8 TRUE              -0.389          -0.123         -0.927           0.0561
 9 TRUE              -0.479          -0.123         -1.09            0.582 
10 FALSE             -0.479          -0.123         -0.755          -0.796 
# ℹ 561 more rows
# ℹ 51,012 more variables: ENSG00000000460 <dbl>, ENSG00000000938 <dbl>,
#   ENSG00000000971 <dbl>, ENSG00000001036 <dbl>, ENSG00000001084 <dbl>,
#   ENSG00000001167 <dbl>, ENSG00000001460 <dbl>, ENSG00000001461 <dbl>,
#   ENSG00000001497 <dbl>, ENSG00000001561 <dbl>, ENSG00000001617 <dbl>,
#   ENSG00000001626 <dbl>, ENSG00000001629 <dbl>, ENSG00000001630 <dbl>,
#   ENSG00000001631 <dbl>, ENSG00000002016 <dbl>, ENSG00000002079 <dbl>, …
…
Results

SVM - Variable Importance

We used a technique called permutation importance to determine the importance of each feature in the SVM model.

# A tibble: 60 × 5
  feature         delta_mcc display_label description                    biotype
  <chr>               <dbl> <chr>         <chr>                          <chr>  
1 ENSG00000198933   -0.109  TBKBP1        TBK1 binding protein 1 [Sourc… protei…
2 ENSG00000226419   -0.0915 SLC16A1-AS1   SLC16A1 antisense RNA 1 [Sour… antise…
3 ENSG00000042832   -0.0915 TG            thyroglobulin [Source:HGNC Sy… protei…
4 ENSG00000165138   -0.0915 ANKS6         ankyrin repeat and sterile al… protei…
5 ENSG00000122378   -0.0740 FAM213A       family with sequence similari… protei…
# ℹ 55 more rows
…
